Source,Target,Label,ID,Type,Weight
21,25,'jati',,,
7,25,'jati',,,
4,28,'jati',,,
12,25,'jati',,,
9,26,'jati',,,
16,27,'jati',,,
22,27,'jati',,,
23,25,'jati',,,
10,27,'jati',,,
1,27,'jati',,,
6,27,'jati',,,
5,27,'jati',,,
20,26,'jati',,,
14,25,'jati',,,
13,25,'jati',,,
2,25,'jati',,,
8,25,'jati',,,
17,25,'jati',,,
15,27,'jati',,,
11,25,'jati',,,
19,25,'jati',,,
21,91,'numberOfMatras',,,
7,87,'numberOfMatras',,,
4,81,'numberOfMatras',,,
12,83,'numberOfMatras',,,
9,85,'numberOfMatras',,,
16,82,'numberOfMatras',,,
22,82,'numberOfMatras',,,
23,91,'numberOfMatras',,,
10,89,'numberOfMatras',,,
3,87,'numberOfMatras',,,
1,89,'numberOfMatras',,,
6,89,'numberOfMatras',,,
5,89,'numberOfMatras',,,
20,85,'numberOfMatras',,,
14,91,'numberOfMatras',,,
13,93,'numberOfMatras',,,
2,83,'numberOfMatras',,,
8,90,'numberOfMatras',,,
17,90,'numberOfMatras',,,
15,82,'numberOfMatras',,,
11,83,'numberOfMatras',,,
19,85,'numberOfMatras',,,
18,92,'numberOfMatras',,,
24,90,'numberOfMatras',,,
21,76,'Sam',,,
7,76,'Sam',,,
4,76,'Sam',,,
12,76,'Sam',,,
9,76,'Sam',,,
22,76,'Sam',,,
23,76,'Sam',,,
10,76,'Sam',,,
3,76,'Sam',,,
1,76,'Sam',,,
6,76,'Sam',,,
5,76,'Sam',,,
20,76,'Sam',,,
14,76,'Sam',,,
13,76,'Sam',,,
2,76,'Sam',,,
8,76,'Sam',,,
17,76,'Sam',,,
15,76,'Sam',,,
11,76,'Sam',,,
19,76,'Sam',,,
18,76,'Sam',,,
24,76,'Sam',,,
21,38,'bol',,,
7,45,'bol',,,
4,38,'bol',,,
12,38,'bol',,,
9,43,'bol',,,
16,67,'bol',,,
22,38,'bol',,,
23,38,'bol',,,
10,45,'bol',,,
3,38,'bol',,,
1,45,'bol',,,
6,54,'bol',,,
5,38,'bol',,,
20,38,'bol',,,
14,38,'bol',,,
13,38,'bol',,,
2,39,'bol',,,
8,38,'bol',,,
17,43,'bol',,,
15,73,'bol',,,
11,38,'bol',,,
19,45,'bol',,,
18,38,'bol',,,
24,38,'bol',,,
21,45,'bol',,,
7,45,'bol',,,
4,43,'bol',,,
12,53,'bol',,,
9,58,'bol',,,
16,67,'bol',,,
22,49,'bol',,,
23,71,'bol',,,
10,30,'bol',,,
3,38,'bol',,,
1,71,'bol',,,
6,43,'bol',,,
5,45,'bol',,,
20,38,'bol',,,
14,31,'bol',,,
13,29,'bol',,,
2,33,'bol',,,
8,45,'bol',,,
17,58,'bol',,,
15,45,'bol',,,
11,55,'bol',,,
19,45,'bol',,,
18,73,'bol',,,
24,64,'bol',,,
21,45,'bol',,,
7,40,'bol',,,
4,58,'bol',,,
12,58,'bol',,,
9,43,'bol',,,
16,58,'bol',,,
22,62,'bol',,,
23,45,'bol',,,
10,71,'bol',,,
3,49,'bol',,,
1,43,'bol',,,
6,62,'bol',,,
5,29,'bol',,,
20,49,'bol',,,
14,32,'bol',,,
13,43,'bol',,,
2,39,'bol',,,
8,61,'bol',,,
17,44,'bol',,,
15,29,'bol',,,
11,38,'bol',,,
19,38,'bol',,,
18,45,'bol',,,
24,43,'bol',,,
21,38,'bol',,,
7,71,'bol',,,
4,38,'bol',,,
12,67,'bol',,,
9,43,'bol',,,
16,43,'bol',,,
22,72,'bol',,,
23,45,'bol',,,
10,45,'bol',,,
3,62,'bol',,,
1,58,'bol',,,
6,43,'bol',,,
5,38,'bol',,,
20,62,'bol',,,
14,38,'bol',,,
13,36,'bol',,,
2,33,'bol',,,
8,63,'bol',,,
17,55,'bol',,,
15,38,'bol',,,
11,45,'bol',,,
19,71,'bol',,,
18,61,'bol',,,
24,58,'bol',,,
21,38,'bol',,,
7,74,'bol',,,
4,67,'bol',,,
12,58,'bol',,,
9,58,'bol',,,
16,58,'bol',,,
22,55,'bol',,,
23,37,'bol',,,
10,45,'bol',,,
3,57,'bol',,,
1,67,'bol',,,
6,62,'bol',,,
5,38,'bol',,,
20,57,'bol',,,
14,38,'bol',,,
13,58,'bol',,,
2,65,'bol',,,
8,38,'bol',,,
17,44,'bol',,,
15,53,'bol',,,
11,62,'bol',,,
19,74,'bol',,,
18,66,'bol',,,
24,73,'bol',,,
21,45,'bol',,,
7,58,'bol',,,
4,58,'bol',,,
12,54,'bol',,,
9,67,'bol',,,
16,43,'bol',,,
22,51,'bol',,,
23,38,'bol',,,
3,38,'bol',,,
1,58,'bol',,,
6,38,'bol',,,
5,45,'bol',,,
20,38,'bol',,,
14,31,'bol',,,
13,54,'bol',,,
2,33,'bol',,,
8,45,'bol',,,
17,60,'bol',,,
15,69,'bol',,,
11,55,'bol',,,
19,58,'bol',,,
18,50,'bol',,,
24,43,'bol',,,
21,45,'bol',,,
7,55,'bol',,,
12,43,'bol',,,
9,58,'bol',,,
16,58,'bol',,,
22,52,'bol',,,
23,69,'bol',,,
10,40,'bol',,,
3,49,'bol',,,
1,55,'bol',,,
6,29,'bol',,,
5,29,'bol',,,
20,72,'bol',,,
14,32,'bol',,,
13,43,'bol',,,
2,39,'bol',,,
8,61,'bol',,,
17,46,'bol',,,
15,29,'bol',,,
11,62,'bol',,,
19,55,'bol',,,
18,43,'bol',,,
24,43,'bol',,,
21,38,'bol',,,
7,62,'bol',,,
12,58,'bol',,,
9,43,'bol',,,
23,69,'bol',,,
10,71,'bol',,,
3,62,'bol',,,
1,62,'bol',,,
6,50,'bol',,,
5,62,'bol',,,
20,55,'bol',,,
14,38,'bol',,,
13,36,'bol',,,
2,33,'bol',,,
8,63,'bol',,,
17,68,'bol',,,
11,45,'bol',,,
19,43,'bol',,,
18,61,'bol',,,
24,58,'bol',,,
21,38,'bol',,,
7,40,'bol',,,
9,43,'bol',,,
23,62,'bol',,,
10,69,'bol',,,
3,72,'bol',,,
1,71,'bol',,,
6,67,'bol',,,
5,69,'bol',,,
20,51,'bol',,,
14,62,'bol',,,
13,58,'bol',,,
8,69,'bol',,,
17,70,'bol',,,
19,43,'bol',,,
18,47,'bol',,,
24,64,'bol',,,
21,69,'bol',,,
7,71,'bol',,,
9,58,'bol',,,
23,71,'bol',,,
10,34,'bol',,,
3,55,'bol',,,
1,43,'bol',,,
6,62,'bol',,,
5,29,'bol',,,
20,52,'bol',,,
14,35,'bol',,,
13,54,'bol',,,
8,61,'bol',,,
17,71,'bol',,,
19,58,'bol',,,
18,57,'bol',,,
24,41,'bol',,,
21,69,'bol',,,
7,43,'bol',,,
23,45,'bol',,,
10,71,'bol',,,
3,51,'bol',,,
1,58,'bol',,,
6,67,'bol',,,
5,38,'bol',,,
14,32,'bol',,,
13,67,'bol',,,
8,63,'bol',,,
17,75,'bol',,,
18,55,'bol',,,
24,59,'bol',,,
21,62,'bol',,,
7,58,'bol',,,
23,45,'bol',,,
10,45,'bol',,,
3,52,'bol',,,
1,43,'bol',,,
6,62,'bol',,,
5,38,'bol',,,
14,62,'bol',,,
13,62,'bol',,,
8,72,'bol',,,
17,56,'bol',,,
18,42,'bol',,,
24,73,'bol',,,
21,38,'bol',,,
23,38,'bol',,,
10,45,'bol',,,
1,43,'bol',,,
6,62,'bol',,,
5,45,'bol',,,
14,38,'bol',,,
13,54,'bol',,,
8,55,'bol',,,
17,44,'bol',,,
18,38,'bol',,,
24,46,'bol',,,
21,45,'bol',,,
23,38,'bol',,,
10,40,'bol',,,
1,58,'bol',,,
6,29,'bol',,,
5,29,'bol',,,
14,31,'bol',,,
13,62,'bol',,,
8,51,'bol',,,
17,60,'bol',,,
18,72,'bol',,,
24,51,'bol',,,
21,45,'bol',,,
23,45,'bol',,,
10,71,'bol',,,
14,32,'bol',,,
13,50,'bol',,,
8,52,'bol',,,
17,46,'bol',,,
18,55,'bol',,,
24,52,'bol',,,
21,38,'bol',,,
23,45,'bol',,,
14,38,'bol',,,
13,48,'bol',,,
18,51,'bol',,,
13,50,'bol',,,
18,52,'bol',,,
13,58,'bol',,,
21,76,'vibhaag',,,
7,76,'vibhaag',,,
4,76,'vibhaag',,,
12,76,'vibhaag',,,
9,76,'vibhaag',,,
16,76,'vibhaag',,,
22,76,'vibhaag',,,
23,76,'vibhaag',,,
10,76,'vibhaag',,,
1,76,'vibhaag',,,
6,76,'vibhaag',,,
5,76,'vibhaag',,,
20,76,'vibhaag',,,
14,76,'vibhaag',,,
13,76,'vibhaag',,,
2,76,'vibhaag',,,
8,76,'vibhaag',,,
17,76,'vibhaag',,,
15,76,'vibhaag',,,
11,76,'vibhaag',,,
19,76,'vibhaag',,,
18,76,'vibhaag',,,
24,76,'vibhaag',,,
21,80,'vibhaag',,,
7,78,'vibhaag',,,
4,79,'vibhaag',,,
12,80,'vibhaag',,,
9,78,'vibhaag',,,
16,79,'vibhaag',,,
22,79,'vibhaag',,,
23,80,'vibhaag',,,
10,79,'vibhaag',,,
1,78,'vibhaag',,,
6,81,'vibhaag',,,
5,79,'vibhaag',,,
20,78,'vibhaag',,,
14,80,'vibhaag',,,
13,78,'vibhaag',,,
2,78,'vibhaag',,,
8,80,'vibhaag',,,
17,79,'vibhaag',,,
15,79,'vibhaag',,,
11,80,'vibhaag',,,
19,80,'vibhaag',,,
18,82,'vibhaag',,,
24,77,'vibhaag',,,
21,84,'vibhaag',,,
7,80,'vibhaag',,,
9,81,'vibhaag',,,
22,81,'vibhaag',,,
23,84,'vibhaag',,,
10,83,'vibhaag',,,
1,80,'vibhaag',,,
6,83,'vibhaag',,,
5,83,'vibhaag',,,
20,80,'vibhaag',,,
14,84,'vibhaag',,,
13,80,'vibhaag',,,
2,80,'vibhaag',,,
8,84,'vibhaag',,,
17,83,'vibhaag',,,
15,81,'vibhaag',,,
19,82,'vibhaag',,,
18,88,'vibhaag',,,
24,79,'vibhaag',,,
21,88,'vibhaag',,,
7,82,'vibhaag',,,
9,83,'vibhaag',,,
23,88,'vibhaag',,,
10,86,'vibhaag',,,
1,82,'vibhaag',,,
6,86,'vibhaag',,,
5,86,'vibhaag',,,
20,82,'vibhaag',,,
14,88,'vibhaag',,,
13,82,'vibhaag',,,
2,82,'vibhaag',,,
8,88,'vibhaag',,,
17,87,'vibhaag',,,
18,90,'vibhaag',,,
24,81,'vibhaag',,,
7,84,'vibhaag',,,
1,84,'vibhaag',,,
20,84,'vibhaag',,,
13,84,'vibhaag',,,
24,82,'vibhaag',,,
7,86,'vibhaag',,,
1,86,'vibhaag',,,
13,86,'vibhaag',,,
24,83,'vibhaag',,,
13,88,'vibhaag',,,
24,85,'vibhaag',,,
13,90,'vibhaag',,,
24,86,'vibhaag',,,
24,87,'vibhaag',,,
24,89,'vibhaag',,,
21,80,'taali',,,
7,80,'taali',,,
9,78,'taali',,,
16,76,'taali',,,
22,79,'taali',,,
23,80,'taali',,,
10,79,'taali',,,
1,78,'taali',,,
6,81,'taali',,,
5,79,'taali',,,
20,80,'taali',,,
14,80,'taali',,,
13,80,'taali',,,
2,78,'taali',,,
8,80,'taali',,,
17,79,'taali',,,
15,79,'taali',,,
11,80,'taali',,,
19,80,'taali',,,
18,80,'taali',,,
24,77,'taali',,,
21,88,'taali',,,
7,84,'taali',,,
9,83,'taali',,,
22,81,'taali',,,
23,88,'taali',,,
10,86,'taali',,,
1,82,'taali',,,
6,86,'taali',,,
5,86,'taali',,,
20,84,'taali',,,
14,88,'taali',,,
13,82,'taali',,,
2,82,'taali',,,
8,88,'taali',,,
17,87,'taali',,,
15,81,'taali',,,
19,82,'taali',,,
18,87,'taali',,,
24,79,'taali',,,
7,86,'taali',,,
1,86,'taali',,,
13,86,'taali',,,
24,81,'taali',,,
13,88,'taali',,,
24,82,'taali',,,
21,84,'khali',,,
7,78,'khali',,,
4,79,'khali',,,
12,80,'khali',,,
9,81,'khali',,,
16,76,'khali',,,
23,84,'khali',,,
10,83,'khali',,,
1,80,'khali',,,
6,83,'khali',,,
5,83,'khali',,,
20,78,'khali',,,
14,84,'khali',,,
13,78,'khali',,,
2,80,'khali',,,
8,84,'khali',,,
17,83,'khali',,,
18,88,'khali',,,
7,82,'khali',,,
1,84,'khali',,,
20,82,'khali',,,
13,84,'khali',,,
1,86,'khali',,,
